{
    "autoclose": false,
    "backup": false,
    "backupdir": "/tmp/micro/backups",
    "colorcolumn": 88,
    "colorscheme": "monokai-arnaud",
    "diffgutter": true,
    "eofnewline": false,
    "ftoptions": false,
    "hlsearch": true,
    "hltaberrors": true,
    "hltrailingws": true,
    "indentchar": "·",
    "linter": false,
    "matchbracestyle": "underline",
    "saveundo": false,
    "scrollbar": true,
    "scrollspeed": 3,
    "softwrap": true,
    "statusformatl": "$(filename) ($(lines) lines) $(modified)($(line),$(col)) $(status.paste)| ft:$(opt:filetype) | $(opt:fileformat) | $(opt:encoding)",
    "tabstospaces": false,
    "useprimary": false,
    "wordwrap": false
}
